<?xml version="1.0" encoding="utf-8"?>
<!-- Generator: Adobe Illustrator 16.0.0, SVG Export Plug-In . SVG Version: 6.00 Build 0)  -->
<!DOCTYPE svg PUBLIC "-//W3C//DTD SVG 1.1//EN" "http://www.w3.org/Graphics/SVG/1.1/DTD/svg11.dtd">
<svg version="1.1" xmlns="http://www.w3.org/2000/svg" xmlns:xlink="http://www.w3.org/1999/xlink" x="0px" y="0px" width="150px"
	 height="150px" viewBox="0 0 150 150" enable-background="new 0 0 150 150" xml:space="preserve">
<g id="Capa_1">
	<circle fill="#FFFFFF" cx="75" cy="75" r="75"/>
	<g>
		<path fill="none" d="M95.056,112.57c0.032-0.02,0.065-0.038,0.098-0.057l-0.195-0.216L95.056,112.57z"/>
		<path fill="none" d="M120.462,56.292c-0.011,0-0.021,0.092-0.033,0.142l-0.602-0.142h-15.705L93.094,106.99l1.529,4.327
			c0.29-0.271,0.58-0.52,0.865-0.809l1.086,1.079c19.753-13.388,25.06-45.969,26.191-55.225c-0.066,0.003-0.131-0.07-0.198-0.07
			H120.462z M98.784,109.292l-1.257-1.035c0.627-0.763,1.263-1.594,1.888-2.469l1.326,0.946
			C100.093,107.64,99.435,108.5,98.784,109.292z M102.527,104.069l-1.375-0.871c0.539-0.851,1.082-1.753,1.614-2.682l1.413,0.809
			C103.634,102.275,103.079,103.198,102.527,104.069z M105.714,98.523l-1.442-0.756c0.482-0.918,0.953-1.854,1.414-2.804l1.464,0.71
			C106.683,96.639,106.203,97.589,105.714,98.523z M108.503,92.786l-1.483-0.67c0.43-0.954,0.852-1.917,1.262-2.884l1.499,0.635
			C109.365,90.846,108.939,91.821,108.503,92.786z M110.989,86.923l-1.512-0.604c0.392-0.979,0.771-1.959,1.14-2.938l1.523,0.575
			C111.768,84.944,111.384,85.935,110.989,86.923z M113.238,80.973l-1.533-0.549c0.358-1.001,0.704-1.995,1.039-2.977l1.541,0.523
			C113.948,78.961,113.6,79.963,113.238,80.973z M115.286,74.955l-1.548-0.502c0.331-1.023,0.648-2.028,0.951-3.008l1.555,0.48
			C115.939,72.912,115.62,73.923,115.286,74.955z M117.16,68.882l-1.561-0.46c0.31-1.053,0.601-2.066,0.872-3.033l1.567,0.439
			C117.766,66.802,117.473,67.822,117.16,68.882z M118.876,62.763l-1.572-0.419c0.298-1.121,0.563-2.145,0.792-3.055l1.579,0.398
			C119.444,60.604,119.178,61.635,118.876,62.763z"/>
		<path fill="none" d="M57.886,107.292l-1.743,4.703c5.316,3.192,11.787,3.976,19.828,3.976c7.294,0,12.879-0.373,17.647-2.865
			l-2.015-5.813H57.886z M58.852,112.373l-0.76-0.292l0.19-0.497l0.76,0.292L58.852,112.373z M59.625,110.356l-0.76-0.292
			l0.583-1.52l0.76,0.292L59.625,110.356z M89.494,108.836l0.76-0.292l0.583,1.52l-0.76,0.292L89.494,108.836z M90.852,112.373
			l-0.191-0.497l0.76-0.292l0.191,0.497L90.852,112.373z"/>
		<path fill="none" d="M91.638,106.292l10.818-50h-1.211l-0.012,0.05l-0.216-0.05H48.686l-0.215,0.05l-0.012-0.05h-1.415l10.818,50
			h2.04l-0.099-0.515l0.793-0.138l0.14,0.652h28.23l0.141-0.697l0.793,0.228l-0.098,0.47H91.638z M48.835,58.099l0.793-0.183
			l0.366,1.587l-0.793,0.182L48.835,58.099z M49.567,61.271l0.793-0.183l0.366,1.586l-0.793,0.183L49.567,61.271z M50.298,64.444
			l0.793-0.183l0.366,1.586l-0.793,0.183L50.298,64.444z M51.029,67.617l0.793-0.183l0.365,1.586l-0.793,0.183L51.029,67.617z
			 M51.76,70.789l0.793-0.183l0.366,1.586l-0.793,0.183L51.76,70.789z M52.491,73.961l0.793-0.183l0.365,1.586l-0.793,0.183
			L52.491,73.961z M53.223,77.134l0.793-0.183l0.366,1.586l-0.793,0.183L53.223,77.134z M53.954,80.307l0.793-0.183l0.365,1.586
			l-0.793,0.183L53.954,80.307z M54.685,83.479l0.793-0.183l0.365,1.586l-0.793,0.183L54.685,83.479z M55.417,86.651l0.793-0.183
			l0.365,1.586l-0.793,0.183L55.417,86.651z M56.147,89.824l0.793-0.183l0.365,1.586l-0.793,0.183L56.147,89.824z M56.879,92.997
			l0.793-0.183l0.366,1.586l-0.793,0.183L56.879,92.997z M57.61,96.169l0.793-0.183l0.365,1.586l-0.793,0.183L57.61,96.169z
			 M58.34,99.342l0.793-0.183l0.366,1.586l-0.793,0.183L58.34,99.342z M59.438,104.1l-0.366-1.586l0.793-0.183l0.366,1.586
			L59.438,104.1z M100.074,57.916l0.793,0.183l-0.365,1.586l-0.793-0.182L100.074,57.916z M99.343,61.089l0.793,0.183l-0.365,1.586
			l-0.793-0.183L99.343,61.089z M98.612,64.261l0.793,0.183l-0.365,1.586l-0.793-0.183L98.612,64.261z M97.881,67.434l0.793,0.183
			l-0.365,1.586l-0.793-0.183L97.881,67.434z M97.15,70.606l0.793,0.183l-0.366,1.586l-0.793-0.183L97.15,70.606z M96.419,73.779
			l0.793,0.183l-0.366,1.586l-0.793-0.183L96.419,73.779z M95.688,76.952l0.793,0.183l-0.366,1.586l-0.793-0.183L95.688,76.952z
			 M94.957,80.124l0.793,0.183l-0.366,1.586l-0.793-0.183L94.957,80.124z M94.226,83.296l0.793,0.183l-0.366,1.586l-0.793-0.183
			L94.226,83.296z M93.494,86.469l0.793,0.183l-0.366,1.586l-0.793-0.183L93.494,86.469z M92.763,89.642l0.793,0.183l-0.366,1.586
			l-0.793-0.183L92.763,89.642z M92.031,92.814l0.793,0.183l-0.366,1.586L91.666,94.4L92.031,92.814z M91.3,95.987l0.793,0.183
			l-0.364,1.586l-0.793-0.183L91.3,95.987z M90.57,99.159l0.793,0.183l-0.365,1.586l-0.793-0.183L90.57,99.159z M89.473,103.918
			l0.365-1.586l0.793,0.183l-0.366,1.586L89.473,103.918z"/>
		<path fill="none" d="M45.377,56.292H30.767l-0.602,0.142c-0.012-0.05-0.022-0.142-0.033-0.142h-2.792
			c-0.04,0-0.078,0.081-0.117,0.08c1.339,8.741,6.962,37.785,24.196,52.382c-0.522-0.654-1.047-1.317-1.564-2.042l1.326-0.935
			c0.625,0.876,1.26,1.712,1.888,2.475l-1.152,0.951c0.829,0.68,1.683,1.331,2.565,1.941l0.542-0.534l1.38-3.632L45.377,56.292z
			 M30.918,59.687l1.578-0.398c0.23,0.91,0.495,1.935,0.792,3.055l-1.572,0.419C31.416,61.635,31.149,60.604,30.918,59.687z
			 M32.556,65.828l1.567-0.439c0.271,0.967,0.562,1.98,0.872,3.033l-1.561,0.46C33.121,67.822,32.829,66.802,32.556,65.828z
			 M34.351,71.924l1.555-0.48c0.303,0.98,0.62,1.985,0.952,3.008l-1.548,0.502C34.974,73.923,34.655,72.912,34.351,71.924z
			 M36.309,77.97l1.54-0.523c0.335,0.982,0.681,1.976,1.039,2.977l-1.532,0.549C36.994,79.963,36.645,78.961,36.309,77.97z
			 M38.454,83.957l1.523-0.575c0.369,0.978,0.748,1.958,1.14,2.938l-1.512,0.604C39.209,85.935,38.826,84.944,38.454,83.957z
			 M40.813,89.867l1.499-0.635c0.41,0.968,0.832,1.931,1.261,2.884l-1.483,0.67C41.654,91.821,41.228,90.846,40.813,89.867z
			 M44.88,98.523c-0.49-0.934-0.969-1.884-1.436-2.849l1.463-0.71c0.461,0.949,0.933,1.885,1.415,2.804L44.88,98.523z
			 M48.066,104.069c-0.552-0.871-1.107-1.794-1.652-2.744l1.414-0.809c0.531,0.929,1.074,1.831,1.613,2.682L48.066,104.069z"/>
		<path fill="none" d="M124.25,44.919c0-0.899-0.729-1.628-1.628-1.628H26.878c-0.899,0-1.628,0.729-1.628,1.628v7.744
			c0,0.899,0.729,1.628,1.628,1.628h95.744c0.899,0,1.628-0.729,1.628-1.628V44.919z"/>
		<path d="M29.123,78.275c7.209,21.667,17.488,31.772,24.841,36.434c6.061,3.842,13.181,4.629,22.007,4.629
			c7.78,0,14.173-0.248,19.725-3.368c11.139-6.26,19.961-18.958,25.512-36.721c3.666-11.731,4.682-21.892,4.917-24.444
			c0.759-0.861,1.125-1.989,1.125-3.225v-7.325c0-2.693-1.989-4.963-4.682-4.963H27.339c-2.693,0-5.089,2.27-5.089,4.963v7.325
			c0,1.247,0.576,2.383,1.349,3.247C23.897,57.259,25.35,66.937,29.123,78.275z M54.481,111.144
			c-0.883-0.61-1.736-1.259-2.565-1.939l1.152-0.948c-0.628-0.763-1.263-1.594-1.888-2.469l-1.326,0.946
			c0.517,0.725,1.042,1.408,1.564,2.063C34.185,94.199,28.561,65.112,27.222,56.371c0.04,0.001,0.078-0.08,0.117-0.08h2.792
			c0.011,0,0.021,0.092,0.033,0.142l0.602-0.142h14.611l11.026,50.686l-1.38,3.59L54.481,111.144z M89.107,105.594l-0.141,0.697
			h-28.23l-0.14-0.697l-0.793,0.228l0.099,0.47h-2.04l-10.818-50h1.415l0.012,0.05l0.215-0.05h52.332l0.216,0.05l0.012-0.05h1.211
			l-10.818,50h-1.835l0.098-0.47L89.107,105.594z M75.971,116.083c-8.041,0-14.511-0.896-19.828-4.088l1.743-4.703h33.717
			l2.015,5.869C88.85,115.653,83.266,116.083,75.971,116.083z M95.056,112.57l-0.098-0.273l0.195,0.216
			C95.121,112.533,95.088,112.551,95.056,112.57z M96.574,111.598l-1.086-1.069c-0.285,0.29-0.575,0.561-0.865,0.831l-1.529-4.37
			l11.028-50.698h15.705l0.602,0.142c0.012-0.05,0.021-0.142,0.033-0.142h2.106c0.067,0,0.131,0.079,0.198,0.076
			C121.634,65.623,116.327,98.209,96.574,111.598z M124.25,52.663c0,0.899-0.729,1.628-1.628,1.628H26.878
			c-0.899,0-1.628-0.729-1.628-1.628V44.92c0-0.899,0.729-1.628,1.628-1.628h95.744c0.899,0,1.628,0.729,1.628,1.628V52.663z"/>
		<path d="M43.444,95.674c0.467,0.965,0.946,1.916,1.436,2.849l1.442-0.756c-0.482-0.918-0.953-1.854-1.415-2.804L43.444,95.674z"/>
		<path d="M39.977,83.382l-1.523,0.575c0.372,0.987,0.756,1.978,1.151,2.966l1.512-0.604C40.724,85.34,40.345,84.36,39.977,83.382z"
			/>
		<path d="M46.415,101.326c0.544,0.949,1.1,1.873,1.652,2.744l1.375-0.871c-0.539-0.851-1.082-1.753-1.613-2.682L46.415,101.326z"/>
		<path d="M34.123,65.389l-1.567,0.439c0.273,0.974,0.565,1.994,0.878,3.054l1.561-0.46C34.685,67.369,34.394,66.356,34.123,65.389z
			"/>
		<path d="M37.849,77.447l-1.54,0.523c0.336,0.991,0.685,1.993,1.047,3.002l1.532-0.549C38.53,79.422,38.184,78.429,37.849,77.447z"
			/>
		<path d="M32.497,59.289l-1.578,0.398c0.231,0.917,0.498,1.948,0.799,3.076l1.572-0.419C32.991,61.224,32.727,60.199,32.497,59.289
			z"/>
		<path d="M35.905,71.444l-1.555,0.48c0.305,0.988,0.623,2,0.958,3.031l1.548-0.502C36.525,73.429,36.208,72.424,35.905,71.444z"/>
		<path d="M42.313,89.232l-1.499,0.635c0.415,0.979,0.841,1.954,1.277,2.919l1.483-0.67C43.144,91.163,42.723,90.2,42.313,89.232z"
			/>
		<path d="M107.02,92.116l1.483,0.67c0.437-0.965,0.862-1.94,1.277-2.919l-1.499-0.635C107.871,90.2,107.45,91.163,107.02,92.116z"
			/>
		<path d="M97.526,108.257l1.257,1.035c0.651-0.792,1.309-1.652,1.956-2.558l-1.326-0.946
			C98.789,106.663,98.154,107.494,97.526,108.257z"/>
		<path d="M104.272,97.767l1.442,0.756c0.489-0.934,0.969-1.884,1.437-2.849l-1.464-0.71
			C105.225,95.913,104.754,96.849,104.272,97.767z"/>
		<path d="M101.152,103.198l1.375,0.871c0.552-0.871,1.107-1.794,1.652-2.744l-1.413-0.809
			C102.234,101.445,101.691,102.347,101.152,103.198z"/>
		<path d="M113.737,74.452l1.548,0.502c0.334-1.031,0.653-2.043,0.958-3.031l-1.555-0.48
			C114.386,72.424,114.068,73.429,113.737,74.452z"/>
		<path d="M111.706,80.424l1.533,0.549c0.361-1.009,0.71-2.012,1.046-3.002l-1.541-0.523
			C112.41,78.429,112.064,79.422,111.706,80.424z"/>
		<path d="M115.599,68.422l1.561,0.46c0.313-1.06,0.606-2.081,0.878-3.054l-1.567-0.439
			C116.199,66.356,115.909,67.369,115.599,68.422z"/>
		<path d="M117.304,62.344l1.572,0.419c0.301-1.128,0.567-2.159,0.799-3.076l-1.579-0.398
			C117.867,60.199,117.603,61.224,117.304,62.344z"/>
		<path d="M109.478,86.319l1.512,0.604c0.395-0.989,0.779-1.979,1.151-2.966l-1.523-0.575
			C110.249,84.36,109.869,85.34,109.478,86.319z"/>
		<rect x="57.051" y="92.885" transform="matrix(0.9744 -0.225 0.225 0.9744 -19.6081 15.3299)" width="0.814" height="1.627"/>
		<rect x="55.589" y="86.539" transform="matrix(0.9745 -0.2244 0.2244 0.9745 -18.1756 14.7948)" width="0.814" height="1.628"/>
		<rect x="54.126" y="80.195" transform="matrix(0.9744 -0.2249 0.2249 0.9744 -16.819 14.3368)" width="0.814" height="1.628"/>
		<rect x="56.32" y="89.712" transform="matrix(0.9745 -0.2243 0.2243 0.9745 -18.8588 15.0296)" width="0.814" height="1.628"/>
		<rect x="51.932" y="70.677" transform="matrix(0.9745 -0.2244 0.2244 0.9745 -14.709 13.5696)" width="0.814" height="1.628"/>
		<rect x="54.857" y="83.367" transform="matrix(0.9744 -0.2249 0.2249 0.9744 -17.5136 14.5825)" width="0.814" height="1.627"/>
		<rect x="53.395" y="77.022" transform="matrix(0.9745 -0.2244 0.2244 0.9745 -16.0957 14.0597)" width="0.814" height="1.628"/>
		<rect x="58.16" y="111.713" transform="matrix(-0.9336 -0.3582 0.3582 -0.9336 73.1352 237.5061)" width="0.814" height="0.532"/>
		<rect x="51.201" y="67.505" transform="matrix(0.9745 -0.2243 0.2243 0.9745 -14.0083 13.3158)" width="0.814" height="1.627"/>
		<rect x="57.782" y="96.057" transform="matrix(0.9745 -0.2243 0.2243 0.9745 -20.2447 15.5193)" width="0.814" height="1.627"/>
		<rect x="59.13" y="108.636" transform="matrix(-0.9334 -0.3587 0.3587 -0.9334 75.8478 232.974)" width="0.814" height="1.628"/>
		<rect x="50.471" y="64.332" transform="matrix(0.9744 -0.2249 0.2249 0.9744 -13.3458 13.1086)" width="0.814" height="1.628"/>
		<rect x="49.739" y="61.159" transform="matrix(0.9745 -0.2244 0.2244 0.9745 -12.629 12.8347)" width="0.814" height="1.628"/>
		<rect x="49.008" y="57.987" transform="matrix(0.9744 -0.2249 0.2249 0.9744 -11.9564 12.6173)" width="0.814" height="1.628"/>
		<rect x="52.664" y="73.849" transform="matrix(0.9745 -0.2243 0.2243 0.9745 -15.3941 13.8055)" width="0.814" height="1.628"/>
		
			<rect x="58.837" y="102.809" transform="matrix(-0.2247 -0.9744 0.9744 -0.2247 -27.5214 184.535)" width="1.628" height="0.814"/>
		<rect x="58.513" y="99.229" transform="matrix(0.9744 -0.2249 0.2249 0.9744 -20.9869 15.8107)" width="0.814" height="1.628"/>
		<rect x="94.032" y="83.367" transform="matrix(0.9744 0.225 -0.225 0.9744 21.3613 -19.0896)" width="0.814" height="1.628"/>
		<rect x="93.301" y="86.539" transform="matrix(0.9745 0.2243 -0.2243 0.9745 21.9799 -18.7922)" width="0.814" height="1.628"/>
		<rect x="95.495" y="77.022" transform="matrix(0.9745 0.2244 -0.2244 0.9745 19.9143 -19.5369)" width="0.814" height="1.628"/>
		<rect x="96.957" y="70.677" transform="matrix(0.9745 0.2243 -0.2243 0.9745 18.5153 -20.0164)" width="0.814" height="1.628"/>
		<rect x="96.226" y="73.849" transform="matrix(0.9745 0.2243 -0.2243 0.9745 19.2082 -19.7715)" width="0.814" height="1.628"/>
		<rect x="91.838" y="92.885" transform="matrix(0.9744 0.2249 -0.2249 0.9744 23.4313 -18.3427)" width="0.814" height="1.627"/>
		<rect x="89.645" y="102.402" transform="matrix(0.9745 0.2243 -0.2243 0.9745 25.4447 -17.5682)" width="0.814" height="1.628"/>
		<rect x="90.377" y="99.229" transform="matrix(0.9744 0.225 -0.225 0.9744 24.8365 -17.8604)" width="0.814" height="1.628"/>
		<rect x="97.688" y="67.505" transform="matrix(0.9745 0.2244 -0.2244 0.9745 17.8343 -20.2719)" width="0.814" height="1.627"/>
		<rect x="91.107" y="96.057" transform="matrix(0.9745 0.2243 -0.2243 0.9745 24.0588 -18.0577)" width="0.814" height="1.627"/>
		<rect x="92.569" y="89.712" transform="matrix(0.9745 0.2243 -0.2243 0.9745 22.6729 -18.5473)" width="0.814" height="1.628"/>
		<rect x="94.763" y="80.195" transform="matrix(0.9744 0.2249 -0.2249 0.9744 20.6527 -19.3254)" width="0.814" height="1.628"/>
		<rect x="99.15" y="61.159" transform="matrix(0.9745 0.2244 -0.2244 0.9745 16.4476 -20.7619)" width="0.814" height="1.628"/>
		<rect x="98.419" y="64.332" transform="matrix(0.9744 0.2249 -0.2249 0.9744 17.1795 -20.5536)" width="0.814" height="1.628"/>
		<rect x="99.881" y="57.987" transform="matrix(0.9744 0.2249 -0.2249 0.9744 15.7902 -21.045)" width="0.814" height="1.628"/>
		<rect x="89.759" y="108.637" transform="matrix(0.9337 -0.358 0.358 0.9337 -33.2084 39.5356)" width="0.814" height="1.628"/>
		<rect x="90.87" y="111.572" transform="matrix(-0.3585 -0.9335 0.9335 -0.3585 19.28 237.2055)" width="0.532" height="0.814"/>
	</g>
</g>
<g id="Capa_2" display="none">
</g>
</svg>
